5 Scale-Free Networks – Network Science
…
g_ba_large <- sample_pa(n = n_ba, power = 1, m = m_ba, directed = FALSE)
deg_ba <- degree(g_ba_large)

deg_tbl <- tibble(k = deg_ba) |>
  count(k, name = "count") |>
  filter(k > 0) |>
  mutate(
    prob = count / sum(count)
  )

deg_tbl

# A tibble: 37 × 3
       k count    prob
   <dbl> <int>   <dbl>
 1     2  1361 0.454  
 2     3   635 0.212  
 3     4   331 0.110  
 4     5   202 0.0673 
 5     6   150 0.05   
 6     7    66 0.022  
 7     8    52 0.0173 
 8     9    32 0.0107 
 9    10    29 0.00967
10    11    29 0.00967
# ℹ 27 more rows
…
